[
  {
    "id": "78046236-ba6a-4755-b9d0-db1f93290135",
    "description": "In tempus mauris sed nisi porttitor, non interdum diam fermentum. Praesent lacinia augue augue, a pretium est posuere nec. Fusce sed diam blandit, laoreet tellus vel, molestie quam. Pellentesque habitant morbi tristique senectus et netus et malesuada fames ac turpis egestas. Aliquam erat volutpat. Suspendisse facilisis odio nec nibh posuere congue. Aliquam erat volutpat.",
    "saveDataType": "default",
    "metadataId": "099595bc-8068-4e0a-b7bb-2fbc768b6ab3",
    "scriptCursorPos": "8872058b-c1d8-446e-8f54-b0b0a8342b45",
    "logCursorPos": 114,
    "createTimestamp": 1653548692299,
    "context": {}
  }
]
